Session 4: Homework 2
…
#We observed that all the missing values of region belong to country Korea, Dem. People's Rep.
worldbank_data %>% 
  filter(is.na(region))

## # A tibble: 57 x 9
##    iso2c iso3c country                    date NY.GDP.PCAP.KD SE.PRM.NENR SH.DYN.MORT
##    <chr> <chr> <chr>                     <dbl>          <dbl>       <dbl>       <dbl>
##  1 KP    PRK   Korea, Dem. People's Rep.  1960             NA          NA          NA
##  2 KP    PRK   Korea, Dem. People's Rep.  1961             NA          NA          NA
##  3 KP    PRK   Korea, Dem. People's Rep.  1962             NA          NA          NA
##  4 KP    PRK   Korea, Dem. People's Rep.  1963             NA          NA          NA
##  5 KP    PRK   Korea, Dem. People's Rep.  1964             NA          NA          NA
##  6 KP    PRK   Korea, Dem. People's Rep.  1965             NA          NA          NA
##  7 KP    PRK   Korea, Dem. People's Rep.  1966             NA          NA          NA
##  8 KP    PRK   Korea, Dem. People's Rep.  1967             NA          NA          NA
##  9 KP    PRK   Korea, Dem. People's Rep.  1968             NA          NA          NA
## 10 KP    PRK   Korea, Dem. People's Rep.  1969             NA          NA          NA
## # ... with 47 more rows, and 2 more variables: SP.DYN.TFRT.IN <dbl>,
## #   region <chr>
…
